 // thermal loading type. 1: provide temperature-time history 2: thermal cycling around init. temp. 3: thermal cycling above init. temp
           1
 // initial/stress-free temperature (in Kelvins)
   300.000000000000     
 // for cyclic loading, enter: Thermal_cycle_amplitude Thermal_cycle_period
 // for temp-time history. line1: number of temp-time points provided. lines below, list of: time temperature
 1
0.0		300

